; Engine configuration file.
; It's best edited using the editor UI and not directly,
; since the parameters that go here are not all obvious.
;
; Format:
;   [section] ; section goes between []
;   param=value ; assign values to parameters

config_version=5

[application]

config/name="G-Pong"
config/description="Pong made with the Godot Engine"
config/version="1.0.0.1"
config/tags=PackedStringArray("2d")
run/main_scene="res://scenes/ui/menus/start_menu.tscn"
config/features=PackedStringArray("4.3", "GL Compatibility")
boot_splash/bg_color=Color(0, 0, 0, 1)
config/icon="res://icon.svg"

[autoload]

OptionManager="*res://scripts/managers/option_manager.gd"

[display]

window/size/viewport_width=1280
window/size/viewport_height=720
window/stretch/mode="canvas_items"
window/vsync/vsync_mode=0

[file_customization]

folder_colors={
"res://assets/sfx/": "yellow",
"res://resources/": "gray",
"res://scenes/ui/": "green",
"res://scripts/resources/": "gray",
"res://scripts/ui/": "green"
}

[filesystem]

import/blender/enabled=false
import/fbx/enabled=false

[input]

player1_move_up={
"deadzone": 0.5,
"events": [Object(InputEventKey,"resource_local_to_scene":false,"resource_name":"","device":-1,"window_id":0,"alt_pressed":false,"shift_pressed":false,"ctrl_pressed":false,"meta_pressed":false,"pressed":false,"keycode":4194320,"physical_keycode":4194320,"key_label":4194320,"unicode":0,"location":0,"echo":false,"script":null)
, Object(InputEventKey,"resource_local_to_scene":false,"resource_name":"","device":-1,"window_id":0,"alt_pressed":false,"shift_pressed":false,"ctrl_pressed":false,"meta_pressed":false,"pressed":false,"keycode":0,"physical_keycode":87,"key_label":0,"unicode":119,"location":0,"echo":false,"script":null)
]
}
player1_move_down={
"deadzone": 0.5,
"events": [Object(InputEventKey,"resource_local_to_scene":false,"resource_name":"","device":-1,"window_id":0,"alt_pressed":false,"shift_pressed":false,"ctrl_pressed":false,"meta_pressed":false,"pressed":false,"keycode":0,"physical_keycode":4194322,"key_label":0,"unicode":0,"location":0,"echo":false,"script":null)
, Object(InputEventKey,"resource_local_to_scene":false,"resource_name":"","device":-1,"window_id":0,"alt_pressed":false,"shift_pressed":false,"ctrl_pressed":false,"meta_pressed":false,"pressed":false,"keycode":0,"physical_keycode":83,"key_label":0,"unicode":115,"location":0,"echo":false,"script":null)
]
}
player2_move_up={
"deadzone": 0.5,
"events": [Object(InputEventKey,"resource_local_to_scene":false,"resource_name":"","device":-1,"window_id":0,"alt_pressed":false,"shift_pressed":false,"ctrl_pressed":false,"meta_pressed":false,"pressed":false,"keycode":0,"physical_keycode":4194446,"key_label":0,"unicode":56,"location":0,"echo":false,"script":null)
]
}
player2_move_down={
"deadzone": 0.5,
"events": [Object(InputEventKey,"resource_local_to_scene":false,"resource_name":"","device":-1,"window_id":0,"alt_pressed":false,"shift_pressed":false,"ctrl_pressed":false,"meta_pressed":false,"pressed":false,"keycode":0,"physical_keycode":4194440,"key_label":0,"unicode":50,"location":0,"echo":false,"script":null)
]
}
pause={
"deadzone": 0.5,
"events": [Object(InputEventKey,"resource_local_to_scene":false,"resource_name":"","device":-1,"window_id":0,"alt_pressed":false,"shift_pressed":false,"ctrl_pressed":false,"meta_pressed":false,"pressed":false,"keycode":0,"physical_keycode":4194309,"key_label":0,"unicode":0,"location":0,"echo":false,"script":null)
]
}

[layer_names]

2d_physics/layer_1="paddle"
2d_physics/layer_2="ball"
2d_physics/layer_3="wall"
2d_physics/layer_4="score_area"

[rendering]

textures/canvas_textures/default_texture_filter=0
renderer/rendering_method="gl_compatibility"
renderer/rendering_method.mobile="gl_compatibility"
